{
  "title": "Grid",
  "status": "ready",
  "context": {
    "gridItems": [
      {
        "buttonModifier": "button--primary",
        "buttonIconHeight": "56",
        "buttonIcon": "calendar",
        "buttonText": "Calendar"
      },
      {
        "buttonModifier": "button--primary",
        "buttonIconHeight": "56",
        "buttonIcon": "stats",
        "buttonText": "Stats"
      },
      {
        "buttonModifier": "button--primary",
        "buttonIconHeight": "56",
        "buttonIcon": "diffusion",
        "buttonText": "Diffusion"
      },
      {
        "buttonModifier": "button--primary",
        "buttonIconHeight": "56",
        "buttonIcon": "messages",
        "buttonText": "Messages"
      },
      {
        "buttonModifier": "button--primary",
        "buttonIconHeight": "56",
        "buttonIcon": "profile",
        "buttonText": "Profile"
      },
      {
        "buttonModifier": "button--primary",
        "buttonIconHeight": "56",
        "buttonIcon": "settings",
        "buttonText": "Settings"
      }
    ]
  }
}
