{
  "title": "Button",
  "context": {
    "buttonModifier": "button--primary",
    "buttonIcon": "calendar",
    "buttonIconHeight": "56",
    "buttonText": "Botón"
  },
  "variants": [
    {
      "name": "view-more",
      "context": {
        "buttonModifier": "button--collapsable",
        "buttonText": "View more",
        "buttonIconHeight": "8",
        "buttonIcon": "arrow-down"
      }
    }
  ]
}
